PNC analysis and modelling
…
indexed 0B in  0s, 0B/sindexed 2.15GB in  0s, 2.15GB/s                                                                              Rows: 45200 Columns: 10
── Column specification ────────────────────────────────────────────────────────
Delimiter: ","
chr (5): participant, gender, vowel, word, allophone
dbl (5): birthyear, dur, F1.n, F2.n, Lg10CD

ℹ Use `spec()` to retrieve the full column specification for this data.
ℹ Specify the column types or set `show_col_types = FALSE` to quiet this message.

RObject{VecSxp}
# A tibble: 45,200 × 16
   participant gender birthyear vowel word    dur allophone    f1_n    f2_n
   <chr>       <chr>      <dbl> <chr> <chr> <dbl>     <dbl>   <dbl>   <dbl>
 1 PH00-1-01   male        1979 AY    NINE  0.15       -0.5  1.84   -0.223 
 2 PH00-1-01   male        1979 AY    NINE  0.129      -0.5  0.664  -0.167 
 3 PH00-1-01   male        1979 AY    DIED  0.189      -0.5  0.831  -0.0647
 4 PH00-1-01   male        1979 AY    LIKE  0.07        0.5 -0.870  -0.578 
 5 PH00-1-01   male        1979 AY    NINTH 0.06       -0.5 -0.121  -0.393 
 6 PH00-1-01   male        1979 AY    TIME  0.069      -0.5  0.670  -0.116 
 7 PH00-1-01   male        1979 AY    LIKE  0.06        0.5 -0.402  -0.603 
 8 PH00-1-01   male        1979 AY    HIGH  0.059      -0.5  1.12   -0.758 
 9 PH00-1-01   male        1979 AY    HIGH  0.05       -0.5  0.0484  0.0217
10 PH00-1-01   male        1979 AY    FIVE  0.13       -0.5  1.55   -0.645 
# ℹ 45,190 more rows
# ℹ 7 more variables: lg10cd <dbl>, logdur_z2 <dbl>, birthyear_z2 <dbl>,
#   allophone_ay0 <dbl>, gender_male <dbl>, frequency_z2 <dbl>, vheight <dbl>
# ℹ Use `print(n = ...)` to see more rows
…
